<?xml version="1.0" encoding="utf-8"?>
<!-- Generator: Adobe Illustrator 21.1.0, SVG Export Plug-In . SVG Version: 6.00 Build 0)  -->
<svg version="1.1" id="Capa_1" xmlns="http://www.w3.org/2000/svg" xmlns:xlink="http://www.w3.org/1999/xlink" x="0px" y="0px"
	 viewBox="0 0 298 49" style="enable-background:new 0 0 298 49;" xml:space="preserve">
<style type="text/css">
	.st0{fill:#FFFFFF;}
	.st1{fill:#5FC2FF;}
	.st2{clip-path:url(#SVGID_2_);}
	.st3{opacity:0.21;}
	.st4{opacity:0.6;fill:#FFFFFF;enable-background:new    ;}
	.st5{fill:none;stroke:#FFFFFF;stroke-width:0.5;stroke-miterlimit:10;}
	.st6{fill:none;stroke:#F2F2F2;stroke-width:0.75;stroke-miterlimit:10;}
	.st7{fill:none;stroke:#FFFFFF;stroke-width:0.75;stroke-linecap:round;stroke-linejoin:round;}
</style>
<title>sb_logo</title>
<g>
	<path class="st0" d="M30.3,38.5c0.6-0.2,1.2-0.5,1.8-0.8c0.1-0.1,0.4-0.2,0.6-0.3l1.4-0.9l0.7-0.5c0.4-0.3,0.9-0.7,1.3-1v-9.9h-5.6
		c-0.1,0,0,0.1,0,0.2c0,1,0,2.1,0,3.1L30.3,38.5z"/>
	<path class="st0" d="M10,14.2v9.6l0,0h5.7v-1.5c0-0.1-0.1,0-0.1,0c-0.9,0-1.9,0-2.8,0c-0.2,0-0.5,0-0.8,0s-0.1-0.1-0.2-0.2
		c0-0.1-0.1-0.2-0.1-0.3c-0.1-0.4,0-0.8,0.2-1.2c1.2,0,2.4,0,3.6,0c0.1,0,0.2,0,0.2,0v-10c-0.2,0.1-0.4,0.2-0.6,0.3l-1,0.5l-0.2,0.1
		c-0.3,0.1-1.1,0.6-1.3,0.8s-0.5,0.3-0.7,0.5l-0.2,0.1l-0.5,0.4c-0.2,0.2-0.6,0.5-0.8,0.6l-0.1,0.1C10.3,13.9,10,14.2,10,14.2z"/>
	<path class="st0" d="M10,25.2v9.3c0,0.1,0.1,0.1,0.1,0.2l0.2,0.2c0.4,0.3,0.7,0.6,1.1,0.9l0.2,0.1l0.2,0.1l0.2,0.1
		c0.3,0.2,1.1,0.8,1.4,0.9l0.2,0.1l1,0.5c0.1,0.1,0.3,0.1,0.4,0.2l0.2,0.1l0.2,0.1l0.2,0.1h0.1h0.1v-9.7c0-0.1-0.3,0-0.4,0h-3.4
		c-0.2-0.2-0.3-0.5-0.3-0.8c0-0.2,0-0.3,0.1-0.5c0-0.1,0.1-0.2,0.2-0.3c0,0,0,0,0.1,0c0.8,0,1.7,0,2.5,0h1.1c0.1,0,0.1,0,0.1,0v-1.7
		c0-0.1-0.1,0-0.3,0L10,25.2C10,25.2,10,25.2,10,25.2z"/>
	<path class="st0" d="M23.8,25.2v1.5l0,0H27v6.5h-1.6v-4.8h-1.6v11.4l1.1,0h0.3c1.1-0.1,2.2-0.3,3.3-0.6c0.2,0,0.2,0,0.2-0.1V25.2
		c0,0,0-0.1,0-0.1c-1.6,0-3.2,0-4.8,0C23.9,25.1,23.8,25.1,23.8,25.2z"/>
	<path class="st0" d="M23.8,9.3v14.6h4.9l0,0v-1.6l0,0h-3.2v-6.5h1.6v4.9h1.6l0,0V10.1c0-0.1-0.1-0.1-0.2-0.1l-0.9-0.2
		c-0.8-0.2-1.6-0.3-2.5-0.4L23.8,9.3L23.8,9.3L23.8,9.3z"/>
	<path class="st0" d="M17.3,10.1v13.7l0,0h4.8v-1.6H19v-6.5h1.6v4.9h1.6V9.2l0,0h-0.1h-0.2c-0.6,0-1,0.1-1.6,0.2s-1.2,0.2-1.8,0.4
		L17.6,10C17.4,10,17.3,10,17.3,10.1z"/>
	<path class="st0" d="M17.3,25.2v1.5l0,0h3.2v6.5H19v-4.8h-1.6l0,0v10.4c0,0.1,0.1,0.1,0.2,0.1c0.3,0.1,0.6,0.2,0.9,0.2
		c1,0.3,2.1,0.4,3.1,0.5c0.2,0,0.5,0,0.7,0V25.1L17.3,25.2C17.3,25.2,17.3,25.2,17.3,25.2z"/>
	<rect x="30.3" y="17.4" class="st0" width="5.7" height="6.5"/>
	<path class="st0" d="M30.4,15.7H36v-1.5c-0.5-0.5-1.1-1-1.8-1.4l-1-0.7L33.1,12H33l-0.9-0.5l-0.2-0.1c-0.1-0.1-1-0.5-1.2-0.6
		c-0.1-0.1-0.3-0.1-0.4-0.2v4.8C30.3,15.6,30.3,15.7,30.4,15.7z"/>
</g>
<path class="st0" d="M179.2,15.9v4.4c0.4-0.7,1-1.3,1.7-1.7c0.7-0.4,1.6-0.6,2.4-0.5c1.7,0,3.2,0.8,4.2,2.1c1.1,1.6,1.7,3.5,1.6,5.5
	c0.1,2-0.5,3.9-1.6,5.5c-0.6,0.7-1.3,1.2-2.2,1.5c-0.9,0.3-1.8,0.5-2.8,0.5c-1.7,0-3.4-0.5-4.9-1.4c-1.5-0.9-2.2-2.6-2.2-5.2V14.1
	h1.9C178.4,14.1,179.2,14.9,179.2,15.9z M185.4,25.5c0.1-1.1-0.2-2.1-0.8-3c-0.5-0.7-1.3-1.2-2.2-1.1c-0.9-0.1-1.8,0.3-2.4,1.1
	c-0.6,0.9-0.9,2-0.8,3.1c-0.1,1.2,0.2,2.3,0.8,3.3c0.5,0.8,1.4,1.2,2.3,1.1c0.9,0,1.8-0.4,2.3-1.1C185.2,27.9,185.5,26.7,185.4,25.5
	z"/>
<path class="st0" d="M203.9,18.4v8.5c0,2.6-0.7,4.3-2,5.1c-1.3,0.8-2.9,1.2-4.4,1.2c-1.5-0.1-3-0.5-4.3-1.3c-1.3-0.8-1.9-2.5-1.9-5
	v-8.5h3.8v9.3c-0.1,0.7,0.2,1.4,0.8,1.9c0.5,0.4,1.1,0.6,1.7,0.6c0.6,0,1.3-0.2,1.8-0.6c0.6-0.5,0.9-1.2,0.8-1.9v-7.4
	c0-0.5,0.2-1,0.5-1.3c0.4-0.4,0.9-0.6,1.4-0.5H203.9z"/>
<path class="st0" d="M205.5,28.1h3.7c0,0.6,0.3,1.3,0.8,1.6c0.7,0.4,1.4,0.6,2.2,0.5c0.6,0,1.2-0.1,1.7-0.4c0.4-0.2,0.6-0.6,0.6-1
	c0-0.7-0.8-1.2-2.3-1.5c-0.5-0.1-1-0.2-1.5-0.3c-1.4-0.2-2.7-0.8-3.9-1.7c-0.7-0.7-1.1-1.6-1.1-2.6c0-1.3,0.6-2.6,1.6-3.4
	c1.2-0.9,2.7-1.3,4.3-1.3c1.6-0.1,3.2,0.4,4.5,1.3c1,0.9,1.7,2.2,1.7,3.5h-2.3c-0.7,0-1.3-0.3-1.6-0.9l-0.4-0.4
	c-0.5-0.4-1.2-0.5-1.8-0.5c-0.6,0-1.1,0.1-1.6,0.3c-0.3,0.2-0.5,0.6-0.5,1c0,0.6,0.9,1.1,2.8,1.5c0.2,0.1,0.4,0.1,0.5,0.2
	c0.2,0,0.3,0.1,0.5,0c1.4,0.3,2.7,0.8,3.9,1.6c0.7,0.7,1.1,1.6,1,2.6c0.1,1.4-0.5,2.8-1.7,3.7c-1.5,0.9-3.2,1.3-4.9,1.2
	c-1.6,0.1-3.3-0.3-4.6-1.3c-1.1-0.9-1.7-2.3-1.6-3.6L205.5,28.1z"/>
<path class="st0" d="M220.7,14.1h2c1,0,1.8,0.8,1.8,1.9v1.1h-3.8V14.1z M220.7,18.4h2c1,0,1.8,0.8,1.9,1.9v12.7h-3.8L220.7,18.4z"/>
<path class="st0" d="M238.7,32.9h-1.9c-1,0-1.8-0.7-1.8-1.7c0-0.1,0-0.1,0-0.2v-7.4c0.1-0.7-0.2-1.4-0.8-1.9
	c-0.5-0.4-1.1-0.6-1.8-0.6c-0.6,0-1.2,0.2-1.7,0.6c-0.5,0.5-0.8,1.2-0.8,1.9v9.3h-3.8v-8.5c0-2.5,0.6-4.1,1.9-5
	c1.3-0.8,2.8-1.3,4.3-1.4c1.6,0,3.1,0.4,4.4,1.3c1.3,0.8,2,2.5,2,5.1L238.7,32.9z"/>
<path class="st0" d="M250.8,28.4h2.7c-0.3,1.4-1.1,2.6-2.3,3.5c-1.2,0.9-2.7,1.3-4.2,1.2c-1.8,0.1-3.6-0.6-4.9-2
	c-1.3-1.6-1.9-3.6-1.7-5.6c-0.1-2,0.5-3.9,1.7-5.5c1.2-1.4,3-2.1,4.9-2c1.9-0.1,3.7,0.6,5.1,1.9c1.2,1.6,1.9,3.6,1.7,5.6v0.6
	c0,0.1,0,0.3-0.1,0.4h-9.4c0,0.9,0.3,1.8,0.8,2.5c0.5,0.6,1.3,0.9,2.1,0.9c0.6,0,1.1-0.1,1.6-0.4c0.1,0,0.2-0.1,0.3-0.2l0.3-0.3
	c0.1-0.2,0.2-0.3,0.4-0.4C250.1,28.5,250.5,28.4,250.8,28.4z M244.3,24.2h5.6c0-0.8-0.3-1.6-0.8-2.2c-0.5-0.5-1.3-0.8-2-0.8
	c-0.7,0-1.5,0.2-2,0.8C244.5,22.6,244.2,23.4,244.3,24.2L244.3,24.2z"/>
<path class="st0" d="M255.4,28.1h3.7c0,0.6,0.3,1.3,0.8,1.6c0.7,0.4,1.4,0.6,2.2,0.5c0.6,0,1.2-0.1,1.7-0.4c0.4-0.2,0.6-0.6,0.6-1
	c0-0.7-0.8-1.2-2.3-1.5c-0.5-0.1-1-0.2-1.5-0.3c-1.4-0.2-2.7-0.8-3.9-1.7c-0.7-0.7-1.1-1.6-1.1-2.6c0-1.3,0.6-2.6,1.6-3.4
	c1.2-0.9,2.7-1.3,4.3-1.3c1.6-0.1,3.2,0.4,4.5,1.3c1,0.9,1.7,2.2,1.7,3.5h-2.3c-0.7,0-1.3-0.3-1.6-0.9l-0.4-0.4
	c-0.5-0.4-1.2-0.5-1.8-0.5c-0.6,0-1.1,0.1-1.6,0.3c-0.3,0.2-0.5,0.6-0.5,1c0,0.6,0.9,1.1,2.8,1.5c0.2,0.1,0.4,0.1,0.6,0.2
	c0.2,0,0.3,0.1,0.5,0c1.4,0.3,2.7,0.8,3.9,1.6c0.7,0.7,1.1,1.6,1,2.6c0.1,1.4-0.6,2.8-1.7,3.7c-1.5,0.9-3.2,1.3-4.9,1.2
	c-1.6,0.1-3.3-0.3-4.6-1.3c-1.1-0.9-1.7-2.3-1.6-3.6L255.4,28.1z"/>
<path class="st0" d="M269.9,28.1h3.7c0,0.6,0.3,1.3,0.8,1.6c0.7,0.4,1.4,0.6,2.2,0.5c0.6,0,1.2-0.1,1.7-0.4c0.4-0.2,0.6-0.6,0.6-1
	c0-0.7-0.8-1.2-2.3-1.5c-0.5-0.1-1-0.2-1.5-0.3c-1.4-0.2-2.7-0.8-3.9-1.7c-0.7-0.7-1.1-1.6-1.1-2.6c0-1.3,0.6-2.6,1.6-3.4
	c1.2-0.9,2.7-1.3,4.3-1.3c1.6-0.1,3.2,0.4,4.5,1.3c1,0.9,1.7,2.2,1.7,3.5H280c-0.7,0-1.3-0.3-1.6-0.9l-0.4-0.4
	c-0.5-0.4-1.2-0.5-1.8-0.5c-0.6,0-1.1,0.1-1.6,0.3c-0.3,0.2-0.5,0.6-0.5,1c0,0.6,0.9,1.1,2.8,1.5c0.2,0.1,0.4,0.1,0.6,0.2
	c0.2,0,0.3,0.1,0.5,0c1.4,0.3,2.7,0.8,3.9,1.6c0.7,0.7,1.1,1.6,1,2.6c0.1,1.4-0.6,2.8-1.7,3.7c-1.5,0.9-3.2,1.3-4.9,1.2
	c-1.6,0.1-3.3-0.3-4.6-1.3c-1.1-0.9-1.7-2.3-1.6-3.6V28.1z"/>
<path class="st1" d="M99.9,28h3.7c0,0.6,0.3,1.3,0.8,1.6c0.7,0.4,1.4,0.6,2.2,0.5c0.6,0,1.2-0.1,1.7-0.4c0.4-0.2,0.6-0.6,0.7-1
	c0-0.7-0.8-1.2-2.3-1.5c-0.5-0.1-1-0.2-1.5-0.3c-1.4-0.2-2.7-0.8-3.9-1.7c-0.7-0.7-1.1-1.6-1.1-2.6c0-1.3,0.6-2.6,1.6-3.4
	c1.2-0.9,2.7-1.3,4.2-1.3c1.6-0.1,3.2,0.4,4.5,1.3c1,0.9,1.7,2.2,1.7,3.5h-2.3c-0.7,0-1.3-0.3-1.6-0.9l-0.4-0.4
	c-0.5-0.4-1.2-0.5-1.8-0.5c-0.6,0-1.1,0.1-1.6,0.3c-0.3,0.2-0.5,0.6-0.5,1c0,0.6,0.9,1.1,2.8,1.5c0.2,0.1,0.4,0.1,0.6,0.2
	c0.2,0,0.3,0.1,0.5,0c1.4,0.3,2.7,0.8,3.9,1.6c0.7,0.7,1.1,1.6,1,2.6c0.1,1.4-0.5,2.8-1.7,3.7c-1.5,0.9-3.2,1.3-4.9,1.2
	c-1.6,0.1-3.3-0.3-4.6-1.3c-1.1-0.9-1.7-2.3-1.6-3.6L99.9,28z"/>
<path class="st1" d="M127.4,32.8h-3.8v-9.3c0.1-0.7-0.2-1.4-0.8-1.9c-0.5-0.4-1.1-0.6-1.8-0.6c-0.6,0-1.2,0.2-1.7,0.6
	c-0.5,0.5-0.8,1.2-0.8,1.9v9.3h-3.8v-8.5c0-2.5,0.6-4.1,1.9-5c1.3-0.8,2.8-1.3,4.3-1.3c0.8,0,1.6,0.1,2.4,0.3
	c0.8,0.2,1.6,0.6,2.2,1.1c0.6-0.5,1.2-0.8,1.9-1c0.8-0.2,1.5-0.3,2.3-0.4c1.6,0,3.1,0.4,4.4,1.3c1.3,0.8,2,2.5,2,5.1v8.5h-1.9
	c-1,0-1.8-0.7-1.8-1.7c0,0,0-0.1,0-0.1v-7.4c0.1-0.7-0.2-1.4-0.8-1.9c-1-0.8-2.5-0.8-3.5,0c-0.6,0.5-0.9,1.2-0.8,1.9L127.4,32.8
	L127.4,32.8z"/>
<path class="st1" d="M147.9,32.2c-0.8,0.4-1.6,0.6-2.4,0.7c-0.8,0.1-1.5,0.1-2.3,0.1c-1.2,0-2.4-0.4-3.4-1.1
	c-1.1-0.8-1.6-2.2-1.5-3.5c-0.1-1.2,0.4-2.5,1.3-3.3c1-0.7,2.2-1.2,3.4-1.3c0.2,0,0.4,0,0.6-0.1c0.3-0.1,0.5-0.1,0.9-0.1
	c1.6-0.2,2.4-0.7,2.4-1.4c0-0.5-0.3-1-0.8-1.1c-0.5-0.2-1-0.2-1.6-0.3c-0.5,0-0.9,0.1-1.4,0.2c-0.4,0.1-0.7,0.4-0.9,0.8h-3.6
	c0.1-1.1,0.7-2.1,1.5-2.8c1.2-0.9,2.7-1.4,4.2-1.3c1.6-0.1,3.2,0.3,4.5,1c1,0.7,1.6,1.8,1.6,3v5c0.1,1.2-0.2,2.4-0.8,3.4
	C149.3,31.2,148.7,31.8,147.9,32.2z M147.1,25.5c-0.7,0.3-1.4,0.6-2.1,0.7l-1.3,0.3c-0.5,0.1-1,0.4-1.4,0.7
	c-0.2,0.4-0.4,0.8-0.4,1.2c0,0.5,0.2,1,0.5,1.3c0.4,0.3,0.9,0.5,1.4,0.4c1.6,0.2,3.1-1.1,3.3-2.7c0-0.2,0-0.4,0-0.6L147.1,25.5z"/>
<path class="st1" d="M152.6,32.8v-7c0-1.2,0.2-2.4,0.6-3.6c0.4-0.9,1-1.7,1.7-2.3c0.7-0.6,1.5-1,2.4-1.2c0.9-0.3,1.9-0.4,2.9-0.4
	h0.5v3.8h-1.3c-0.9-0.1-1.7,0.2-2.3,0.8c-0.6,0.7-0.8,1.5-0.8,2.4v7.5H152.6z"/>
<path class="st1" d="M168.9,32.8c-1.3,0.1-2.6,0.1-3.9,0c-1.4-0.1-2.1-1-2.1-2.7v-16h2c0.5,0,0.9,0.2,1.3,0.5
	c0.4,0.3,0.5,0.8,0.5,1.3v2.5h2.2v0.8c0,0.5-0.2,1-0.5,1.3c-0.3,0.3-0.8,0.5-1.3,0.5h-0.4v8.1c0,0.6,0.4,0.9,1.1,0.9h1.1L168.9,32.8
	z"/>
<g>
	<defs>
		<circle id="SVGID_1_" cx="80.2" cy="23.5" r="15.4"/>
	</defs>
	<clipPath id="SVGID_2_">
		<use xlink:href="#SVGID_1_"  style="overflow:visible;"/>
	</clipPath>
	<g class="st2">
		<g class="st3">
			<path class="st4" d="M65.4,27.7c0,0.3,0,0.5,0.1,0.8c0.5,2.4,2.6,4.2,5.7,5.3c3.6,1.1,7.4,1.3,11.1,0.5l0,0
				c3.7-0.6,7.2-2.1,10.2-4.5c2.2-1.9,3.5-4.1,3.4-6.2c0.1,2.1-1.2,4.3-3.4,6.1c-3,2.3-6.4,3.8-10.1,4.5l0,0
				c-3.7,0.8-7.5,0.6-11.1-0.5c-3.1-1-5.2-2.9-5.7-5.3C65.5,28.2,65.4,27.9,65.4,27.7z"/>
			<path class="st0" d="M71,11.3c-0.2,0.1-0.5,0.3-0.7,0.4c-2,1.4-2.8,4.1-2.4,7.4c0.5,3.7,1.9,7.3,4.1,10.3l0,0
				c2.1,3.1,5,5.7,8.3,7.4c2.6,1.3,5.2,1.5,7.1,0.5c-1.9,1-4.4,0.7-7-0.5c-3.3-1.7-6.2-4.3-8.3-7.4l0,0c-2.2-3.1-3.6-6.6-4.1-10.4
				c-0.3-3.2,0.4-5.9,2.4-7.4C70.6,11.6,70.8,11.4,71,11.3z"/>
			<path class="st0" d="M89.3,11.7c-1.2-3.4-3-5.3-5.1-5.5c-1.8-0.1-3.5,0.7-4.5,2.1h0.2c1-1.3,2.7-2.1,4.3-1.9
				C86.2,6.5,88,8.4,89.3,11.7c1.1,4,1.5,8.2,0.9,12.3c-0.4,4.2-1.6,8.2-3.6,11.8c-1.8,3-3.9,4.5-6,4.3c-1-0.1-1.9-0.6-2.6-1.4h-0.2
				c0.7,0.9,1.7,1.4,2.8,1.6H81c2,0,4-1.5,5.7-4.4c2.1-3.7,3.3-7.7,3.7-11.9C90.9,19.9,90.6,15.7,89.3,11.7z"/>
			<path class="st0" d="M76.9,34.9c1.5,2.9,3.5,4.5,5.6,4.5c1.6,0.2,3.2-0.5,4.1-1.8h-0.2c-0.9,1.2-2.4,1.9-3.9,1.7
				c-2.1,0-4-1.5-5.5-4.4c-1.6-3.5-2.4-7.2-2.3-11c0-3.8,0.8-7.7,2.5-11.1c1.5-2.9,3.5-4.5,5.6-4.5c1,0,2,0.4,2.8,1h0.2
				c-0.8-0.7-1.9-1.1-3-1.1h-0.4c-2,0.2-3.8,1.8-5.3,4.6c-1.7,3.5-2.5,7.3-2.5,11.2C74.5,27.6,75.2,31.4,76.9,34.9z"/>
			<path class="st0" d="M92.6,9.2c-1.6-1.6-4.4-1.8-8-0.5l-0.2,0.1l0.2,0.1C88.2,7.5,91,7.7,92.6,9.2c1.5,1.6,1.7,4.5,0.4,8
				c-1.7,4.2-4.2,7.9-7.4,11c-3.1,3.2-6.8,5.8-11,7.4c-3.5,1.3-6.3,1.1-7.9-0.4c-1.4-1.4-1.7-3.8-0.8-6.7l-0.1-0.2
				c-0.9,3.1-0.6,5.6,0.8,7.1c1,0.9,2.4,1.4,3.7,1.3c1.5,0,2.9-0.3,4.3-0.9c4.2-1.7,8-4.2,11.1-7.5l0,0c3.2-3.1,5.7-6.9,7.4-11.1
				C94.3,13.6,94.2,10.8,92.6,9.2z"/>
			<path class="st4" d="M91.6,22.3c-3.6-1.9-7.6-3-11.6-3.2l0,0c-4-0.4-8.1,0.1-11.9,1.4c-3.2,1.2-5.1,3-5.2,5s1.3,3.9,4.1,5.6
				l-0.1-0.2c-2.6-1.6-4-3.5-3.8-5.4s2-3.7,5.1-4.9c3.8-1.3,7.9-1.8,11.9-1.4l0,0c4,0.2,8,1.3,11.5,3.2c2.9,1.7,4.5,3.7,4.3,5.6
				c-0.2,1.6-1.2,2.9-2.6,3.7L93.1,32c0.4-0.2,0.8-0.5,1.1-0.8c1-0.7,1.6-1.9,1.8-3.1C96.2,26,94.6,24,91.6,22.3z"/>
		</g>
	</g>
</g>
<circle class="st5" cx="80.2" cy="23.5" r="15.4"/>
<image style="overflow:visible;opacity:0.9;enable-background:new    ;" width="65" height="58" xlink:href="BE170C91.png"  transform="matrix(0.52 0 0 0.5021 63.38 11.75)">
</image>
<polygon class="st6" points="92.2,21.8 80.4,35.6 68.6,21.8 71.9,19.3 75.1,17 85.7,17 88.9,19.3 88.9,19.3 "/>
<line class="st6" x1="68.6" y1="21.8" x2="92.2" y2="21.8"/>
<polyline class="st6" points="80.4,35.6 75.4,21.8 78.2,17 "/>
<polyline class="st6" points="80.4,35.6 85.5,21.8 85.4,21.7 82.7,17 "/>
<polyline class="st6" points="71.9,19.3 75.4,21.8 80.4,18.6 85.3,21.8 88.9,19.3 "/>
<line class="st6" x1="80.4" y1="18.6" x2="80.4" y2="17"/>
<line class="st7" x1="75.3" y1="16.9" x2="85.7" y2="16.9"/>
<line class="st7" x1="80.6" y1="12.2" x2="80.6" y2="22.5"/>
<line class="st7" x1="85" y1="14.2" x2="76.2" y2="19.7"/>
<line class="st7" x1="85.1" y1="19.5" x2="76.1" y2="14.3"/>
</svg>
